{
    "rules": [
        {
            "rule_name": "linux_ability",
            "rule_parameters ": [
                {
                    "variable_name": "damage",
                    "operation": 0,
                    "type": 0
                },
                { 

                }
            ]
        },
        {
            "rule_name": "firewall_ability",
            "rule_parameters ": [
                {
                    "variable_name": "enemies_in_area",
                    "operation": 1
                },
                { 
                    "variable_name": "damage_defensive",
                    "operation": 0
                }
            ]
        },
        {
            "rule_name": "tether_ability",
            "rule_parameters ": [
                {
                    "variable_name": "",
                    "operation" : 0
                }
            ]
        }
    ]
}